<svg
   xmlns:dc="http://purl.org/dc/elements/1.1/"
   xmlns:cc="http://creativecommons.org/ns#"
   xmlns:rdf="http://www.w3.org/1999/02/22-rdf-syntax-ns#"
   xmlns:svg="http://www.w3.org/2000/svg"
   xmlns="http://www.w3.org/2000/svg"
   width="11"
   height="11"
   viewBox="0 0 11 11"
   version="1.1">
  <metadata>
    <rdf:RDF>
      <cc:Work
         rdf:about="">
        <dc:format>:3</dc:format>
        <dc:type
           rdf:resource="http://purl.org/dc/dcmitype/StillImage" />
        <dc:title />
      </cc:Work>
    </rdf:RDF>
  </metadata>
  <g transform="translate(0,-1041.3622)">
    <path
       style="fill:#000000;fill-opacity:1;stroke:none"
       d="M 5.5 0 C 2.4624339 0 2.6697761e-019 2.4624339 0 5.5 C 5.7824116e-019 8.5375661 2.4624339 11 5.5 11 C 8.5375661 11 11 8.5375661 11 5.5 C 11 2.4624339 8.5375661 2.6697761e-019 5.5 0 z M 3.6875 3.3125 C 4.3167191 3.3125 4.6875 3.75 4.6875 3.75 A 0.31501543 0.31501543 0 0 1 4.6875 4.15625 A 0.31501543 0.31501543 0 0 1 4.65625 4.1875 A 0.31501543 0.31501543 0 0 1 4.59375 4.21875 A 0.31501543 0.31501543 0 0 1 4.1875 4.125 C 4.1875 4.125 4.0511677 3.9375 3.6875 3.9375 C 3.3238334 3.9375 3.1875 4.125 3.1875 4.125 A 0.31501543 0.31501543 0 0 1 3.125 4.1875 A 0.31501543 0.31501543 0 0 1 2.78125 4.21875 A 0.31501543 0.31501543 0 0 1 2.6875 4.125 A 0.31501543 0.31501543 0 0 1 2.65625 3.8125 A 0.31501543 0.31501543 0 0 1 2.6875 3.75 C 2.6875 3.75 3.0582814 3.3125 3.6875 3.3125 z M 7.34375 3.3125 C 7.9729692 3.3125 8.34375 3.75 8.34375 3.75 A 0.31501543 0.31501543 0 0 1 8.34375 4.15625 A 0.31501543 0.31501543 0 0 1 8.3125 4.1875 A 0.31501543 0.31501543 0 0 1 8.25 4.21875 A 0.31501543 0.31501543 0 0 1 7.84375 4.125 C 7.84375 4.125 7.7074178 3.9375 7.34375 3.9375 C 6.9800835 3.9375 6.84375 4.125 6.84375 4.125 A 0.31501543 0.31501543 0 0 1 6.78125 4.1875 A 0.31501543 0.31501543 0 0 1 6.4375 4.21875 A 0.31501543 0.31501543 0 0 1 6.34375 4.125 A 0.31501543 0.31501543 0 0 1 6.3125 3.8125 A 0.31501543 0.31501543 0 0 1 6.34375 3.75 C 6.34375 3.75 6.7145315 3.3125 7.34375 3.3125 z M 3.3125 6.15625 A 0.31501543 0.31501543 0 0 1 3.34375 6.15625 A 0.31501543 0.31501543 0 0 1 3.59375 6.21875 A 0.31501543 0.31501543 0 0 1 3.6875 6.3125 A 0.31501543 0.31501543 0 0 1 3.71875 6.375 A 0.31501543 0.31501543 0 0 1 3.75 6.46875 C 3.75 6.46875 3.754124 6.6447 3.84375 6.8125 C 3.9333762 6.9803 4.0594132 7.125 4.46875 7.125 C 4.9015034 7.125 5.014456 7.01625 5.09375 6.90625 C 5.163474 6.80985 5.18592 6.73675 5.1875 6.71875 A 0.31501543 0.31501543 0 0 1 5.1875 6.6875 A 0.31501543 0.31501543 0 0 1 5.1875 6.59375 A 0.31501543 0.31501543 0 0 1 5.21875 6.5625 A 0.31501543 0.31501543 0 0 1 5.21875 6.53125 A 0.31501543 0.31501543 0 0 1 5.25 6.5 A 0.31501543 0.31501543 0 0 1 5.28125 6.46875 A 0.31501543 0.31501543 0 0 1 5.34375 6.4375 A 0.31501543 0.31501543 0 0 1 5.5 6.375 A 0.31501543 0.31501543 0 0 1 5.5625 6.375 A 0.31501543 0.31501543 0 0 1 5.5625 6.40625 A 0.31501543 0.31501543 0 0 1 5.59375 6.40625 A 0.31501543 0.31501543 0 0 1 5.625 6.40625 A 0.31501543 0.31501543 0 0 1 5.65625 6.4375 A 0.31501543 0.31501543 0 0 1 5.6875 6.4375 A 0.31501543 0.31501543 0 0 1 5.71875 6.46875 A 0.31501543 0.31501543 0 0 1 5.71875 6.5 A 0.31501543 0.31501543 0 0 1 5.75 6.53125 A 0.31501543 0.31501543 0 0 1 5.78125 6.53125 A 0.31501543 0.31501543 0 0 1 5.78125 6.5625 A 0.31501543 0.31501543 0 0 1 5.8125 6.6875 A 0.31501543 0.31501543 0 0 1 5.8125 6.71875 C 5.814016 6.73705 5.837151 6.81025 5.90625 6.90625 C 5.9848336 7.01585 6.0984966 7.125 6.53125 7.125 C 6.9405871 7.125 7.066624 6.9803 7.15625 6.8125 C 7.24588 6.6447 7.25 6.46875 7.25 6.46875 A 0.31501543 0.31501543 0 0 1 7.34375 6.25 A 0.31501543 0.31501543 0 0 1 7.4375 6.1875 A 0.31501543 0.31501543 0 0 1 7.71875 6.21875 A 0.31501543 0.31501543 0 0 1 7.84375 6.375 A 0.31501543 0.31501543 0 0 1 7.875 6.46875 C 7.875 6.46875 7.8889924 6.8063 7.71875 7.125 C 7.5485076 7.4437 7.1410839 7.78125 6.53125 7.78125 C 6.009204 7.78125 5.706641 7.5402 5.5 7.3125 C 5.2928235 7.5399 4.990796 7.78125 4.46875 7.78125 C 3.8589163 7.78125 3.4514924 7.4437 3.28125 7.125 C 3.111008 6.8063 3.125 6.46875 3.125 6.46875 A 0.31501543 0.31501543 0 0 1 3.21875 6.25 A 0.31501543 0.31501543 0 0 1 3.25 6.21875 A 0.31501543 0.31501543 0 0 1 3.28125 6.1875 A 0.31501543 0.31501543 0 0 1 3.3125 6.15625 z "
       transform="translate(0,1041.3622)" />
  </g>
</svg>
