<svg
   xmlns:dc="http://purl.org/dc/elements/1.1/"
   xmlns:cc="http://creativecommons.org/ns#"
   xmlns:rdf="http://www.w3.org/1999/02/22-rdf-syntax-ns#"
   xmlns:svg="http://www.w3.org/2000/svg"
   xmlns="http://www.w3.org/2000/svg"
   width="11"
   height="11"
   viewBox="0 0 11 11"
   version="1.1">
  <metadata>
    <rdf:RDF>
      <cc:Work
         rdf:about="">
        <dc:format>:P</dc:format>
        <dc:type
           rdf:resource="http://purl.org/dc/dcmitype/StillImage" />
        <dc:title />
      </cc:Work>
    </rdf:RDF>
  </metadata>
  <g transform="translate(0,-1041.3622)">
    <path
       style="fill:#000000;fill-opacity:1;stroke:none"
       d="M 5.5,0 C 2.4624339,0 0,2.4624339 0,5.5 0,8.5375661 2.4624339,11 5.5,11 8.5375661,11 11,8.5375661 11,5.5 11,2.4624339 8.5375661,0 5.5,0 z M 3.65625,3 c 0.4338979,0 0.8125,0.3473521 0.8125,0.78125 0,0.433898 -0.3786021,0.8125 -0.8125,0.8125 C 3.222352,4.59375 2.875,4.215148 2.875,3.78125 2.875,3.3473521 3.222352,3 3.65625,3 z m 3.6875,0.3125 c 0.6292192,0 1,0.4375 1,0.4375 0.094897,0.1124882 0.094897,0.2937618 0,0.40625 -0.00967,0.011131 -0.020119,0.021582 -0.03125,0.03125 -0.01959,0.012689 -0.040595,0.023192 -0.0625,0.03125 -0.1335433,0.072325 -0.3179041,0.02978 -0.40625,-0.09375 0,0 -0.1363322,-0.1875 -0.5,-0.1875 -0.3636665,0 -0.5,0.1875 -0.5,0.1875 C 6.8259869,4.148628 6.804878,4.1697369 6.78125,4.1875 6.6858434,4.263158 6.5449858,4.2759632 6.4375,4.21875 6.400094,4.1945954 6.3679046,4.162406 6.34375,4.125 6.2799376,4.0359011 6.2675945,3.9124706 6.3125,3.8125 c 0.00806,-0.021905 0.018561,-0.04291 0.03125,-0.0625 0,0 0.3707815,-0.4375 1,-0.4375 z m -4.78125,2.75 c 0.010406,-5.811e-4 0.020844,-5.811e-4 0.03125,0 0.030955,-0.00525 0.062795,-0.00525 0.09375,0 0.043333,5.646e-4 0.086499,0.011356 0.125,0.03125 0.011217,0.00957 0.021677,0.020033 0.03125,0.03125 0.011217,0.00957 0.021677,0.020033 0.03125,0.03125 0,0 0.1267708,0.12305 0.5,0.28125 C 3.7482292,6.5957 4.3452981,6.75 5.25,6.75 l 3.0625,0 c 0.010406,-5.811e-4 0.020844,-5.811e-4 0.03125,0 0.032768,0.00477 0.064674,0.015404 0.09375,0.03125 0.011217,0.00957 0.021677,0.020033 0.03125,0.03125 0.010406,-5.811e-4 0.020844,-5.811e-4 0.03125,0 5.811e-4,0.010406 5.811e-4,0.020844 0,0.03125 0.010406,-5.811e-4 0.020844,-5.811e-4 0.03125,0 0.011217,0.00957 0.021677,0.020033 0.03125,0.03125 0.012966,0.019423 0.023492,0.040473 0.03125,0.0625 0.00233,0.020747 0.00233,0.041753 0,0.0625 5.811e-4,0.010406 5.811e-4,0.020844 0,0.03125 0.00937,0.040962 0.00937,0.084038 0,0.125 0.00714,0.1436902 0.014603,0.366125 -0.0625,0.65625 C 8.4751748,8.0235 8.3790755,8.2578 8.1875,8.4375 7.9959245,8.6172 7.7128626,8.72875 7.375,8.71875 7.0389695,8.71085 6.7824437,8.58665 6.59375,8.40625 6.4050563,8.22595 6.306258,8.0203 6.25,7.8125 6.1999167,7.6274628 6.1919226,7.4567194 6.1875,7.3125 l -0.9375,0 C 4.2763537,7.3125 3.6004942,7.1259 3.15625,6.9375 2.7120058,6.7491 2.46875,6.53125 2.46875,6.53125 2.4575328,6.5216771 2.4470729,6.5112172 2.4375,6.5 2.4216541,6.4709241 2.4110188,6.4390183 2.40625,6.40625 c -0.00937,-0.040962 -0.00937,-0.084038 0,-0.125 0.00477,-0.032768 0.015404,-0.064674 0.03125,-0.09375 0.00957,-0.011217 0.020033,-0.021677 0.03125,-0.03125 0.00957,-0.011217 0.020033,-0.021677 0.03125,-0.03125 0.00957,-0.011217 0.020033,-0.021677 0.03125,-0.03125 0.00957,-0.011217 0.020033,-0.021677 0.03125,-0.03125 z"
       transform="translate(0,1041.3622)" />
  </g>
</svg>
