<svg
   xmlns:dc="http://purl.org/dc/elements/1.1/"
   xmlns:cc="http://creativecommons.org/ns#"
   xmlns:rdf="http://www.w3.org/1999/02/22-rdf-syntax-ns#"
   xmlns:svg="http://www.w3.org/2000/svg"
   xmlns="http://www.w3.org/2000/svg"
   width="11"
   height="11"
   viewBox="0 0 11 11"
   version="1.1">
  <metadata>
    <rdf:RDF>
      <cc:Work
         rdf:about="">
        <dc:format>;)</dc:format>
        <dc:type
           rdf:resource="http://purl.org/dc/dcmitype/StillImage" />
        <dc:title />
      </cc:Work>
    </rdf:RDF>
  </metadata>
  <g transform="translate(0,-1041.3622)">
    <path
       style="fill:#000000;fill-opacity:1;stroke:none"
       d="M 5.5 0 C 2.4624339 0 2.6697761e-019 2.4624339 0 5.5 C 5.7824116e-019 8.5375661 2.4624339 11 5.5 11 C 8.5375661 11 11 8.5375661 11 5.5 C 11 2.4624339 8.5375661 2.6697761e-019 5.5 0 z M 3.65625 3 C 4.0901479 3 4.46875 3.3473521 4.46875 3.78125 C 4.46875 4.215148 4.0901479 4.59375 3.65625 4.59375 C 3.222352 4.59375 2.875 4.215148 2.875 3.78125 C 2.875 3.3473521 3.222352 3 3.65625 3 z M 7.34375 3.3125 C 7.9729692 3.3125 8.34375 3.75 8.34375 3.75 A 0.31501543 0.31501543 0 0 1 8.34375 4.15625 A 0.31501543 0.31501543 0 0 1 8.3125 4.1875 A 0.31501543 0.31501543 0 0 1 8.25 4.21875 A 0.31501543 0.31501543 0 0 1 7.84375 4.125 C 7.84375 4.125 7.7074178 3.9375 7.34375 3.9375 C 6.9800834 3.9375 6.84375 4.125 6.84375 4.125 A 0.31501543 0.31501543 0 0 1 6.78125 4.1875 A 0.31501543 0.31501543 0 0 1 6.4375 4.21875 A 0.31501543 0.31501543 0 0 1 6.34375 4.125 A 0.31501543 0.31501543 0 0 1 6.3125 3.8125 A 0.31501543 0.31501543 0 0 1 6.34375 3.75 C 6.34375 3.75 6.7145314 3.3125 7.34375 3.3125 z M 2.25 6.625 A 0.31501543 0.31501543 0 0 1 2.5625 6.75 C 2.5625 6.75 3.5214557 7.96875 5.5 7.96875 C 7.4785452 7.96875 8.4375 6.75 8.4375 6.75 A 0.31501543 0.31501543 0 0 1 8.46875 6.71875 A 0.31501543 0.31501543 0 0 1 8.5 6.6875 A 0.31501543 0.31501543 0 0 1 8.78125 6.65625 A 0.31501543 0.31501543 0 0 1 8.9375 6.78125 A 0.31501543 0.31501543 0 0 1 8.96875 7.0625 A 0.31501543 0.31501543 0 0 1 8.90625 7.15625 C 8.90625 7.15625 7.7441186 8.59375 5.5 8.59375 C 3.2558823 8.59375 2.09375 7.15625 2.09375 7.15625 A 0.31501543 0.31501543 0 0 1 2.0625 7.125 A 0.31501543 0.31501543 0 0 1 2.0625 6.78125 A 0.31501543 0.31501543 0 0 1 2.21875 6.65625 A 0.31501543 0.31501543 0 0 1 2.25 6.625 z "
       transform="translate(0,1041.3622)" />
  </g>
</svg>
