<svg
   xmlns:dc="http://purl.org/dc/elements/1.1/"
   xmlns:cc="http://creativecommons.org/ns#"
   xmlns:rdf="http://www.w3.org/1999/02/22-rdf-syntax-ns#"
   xmlns:svg="http://www.w3.org/2000/svg"
   xmlns="http://www.w3.org/2000/svg"
   width="11"
   height="11"
   viewBox="0 0 11 11"
   version="1.1">
  <metadata>
    <rdf:RDF>
      <cc:Work
         rdf:about="">
        <dc:format>o_O</dc:format>
        <dc:type
           rdf:resource="http://purl.org/dc/dcmitype/StillImage" />
        <dc:title />
      </cc:Work>
    </rdf:RDF>
  </metadata>
  <g transform="translate(0,-1041.3622)">
    <path
       style="fill:#000000;fill-opacity:1;stroke:none"
       d="M 5.5 0 C 2.4624339 0 2.6697761e-019 2.4624339 0 5.5 C 5.7824116e-019 8.5375661 2.4624339 11 5.5 11 C 8.5375661 11 11 8.5375661 11 5.5 C 11 2.4624339 8.5375661 2.6697761e-019 5.5 0 z M 7.34375 1.3125 C 7.8793768 1.3125 8.2533625 1.50795 8.46875 1.71875 C 8.684138 1.92945 8.75 2.15625 8.75 2.15625 A 0.31501543 0.31501543 0 0 1 8.53125 2.5625 A 0.31501543 0.31501543 0 0 1 8.40625 2.5625 A 0.31501543 0.31501543 0 0 1 8.25 2.5 A 0.31501543 0.31501543 0 0 1 8.125 2.34375 C 8.125 2.34375 8.10757 2.26155 8 2.15625 C 7.89243 2.05105 7.7363845 1.9375 7.34375 1.9375 C 7.0333683 1.9375 6.6324174 2.1885 6.34375 2.5 C 6.0550826 2.8115 5.875 3.125 5.875 3.125 A 0.31501543 0.31501543 0 0 1 5.84375 3.1875 A 0.31501543 0.31501543 0 0 1 5.78125 3.25 A 0.31501543 0.31501543 0 0 1 5.4375 3.25 A 0.31501543 0.31501543 0 0 1 5.34375 3.15625 A 0.31501543 0.31501543 0 0 1 5.34375 2.8125 C 5.34375 2.8125 5.5651421 2.46185 5.90625 2.09375 C 6.2473579 1.72555 6.7258704 1.3125 7.34375 1.3125 z M 3.71875 2.28125 C 4.3479692 2.28125 4.71875 2.71875 4.71875 2.71875 A 0.31501543 0.31501543 0 0 1 4.625 3.15625 A 0.31501543 0.31501543 0 0 1 4.28125 3.15625 A 0.31501543 0.31501543 0 0 1 4.25 3.125 A 0.31501543 0.31501543 0 0 1 4.21875 3.09375 C 4.21875 3.09375 4.0824178 2.90625 3.71875 2.90625 C 3.3550834 2.90625 3.21875 3.09375 3.21875 3.09375 A 0.31501543 0.31501543 0 0 1 3.125 3.1875 A 0.31501543 0.31501543 0 0 1 2.8125 3.1875 A 0.31501543 0.31501543 0 0 1 2.78125 3.15625 A 0.31501543 0.31501543 0 0 1 2.75 3.125 A 0.31501543 0.31501543 0 0 1 2.71875 2.71875 C 2.71875 2.71875 3.0895314 2.28125 3.71875 2.28125 z M 7.34375 2.90625 C 7.9408231 2.90625 8.40625 3.4029269 8.40625 4 C 8.40625 4.5970733 7.9408231 5.0625 7.34375 5.0625 C 6.7466767 5.0625 6.25 4.5970733 6.25 4 C 6.25 3.4029269 6.7466767 2.90625 7.34375 2.90625 z M 3.71875 3.375 C 4.0647845 3.375 4.34375 3.6539655 4.34375 4 C 4.34375 4.3460346 4.0647845 4.625 3.71875 4.625 C 3.3727154 4.625 3.09375 4.3460346 3.09375 4 C 3.09375 3.6539655 3.3727154 3.375 3.71875 3.375 z M 3.09375 6.875 A 0.31599607 0.31599607 0 0 1 3.125 6.875 A 0.31501543 0.31501543 0 0 1 3.21875 6.875 L 5.5 6.875 L 7.78125 6.875 A 0.31501543 0.31501543 0 0 1 8.0625 7.40625 A 0.31501543 0.31501543 0 0 1 8.03125 7.4375 A 0.31501543 0.31501543 0 0 1 7.78125 7.5 L 5.5 7.5 L 3.21875 7.5 A 0.31599607 0.31599607 0 0 1 2.90625 7.03125 A 0.31599607 0.31599607 0 0 1 3.09375 6.875 z "
       transform="translate(0,1041.3622)" />
  </g>
</svg>
